﻿Freq,Input 1,Input 2,Input 3,SQ
151.0850,-70,-50,-30,-80
151.4750,-70,-50,-30,-80
154.1000,-70,-50,-30,-80
158.7900,-70,-50,-30,-80
159.0150,-70,-50,-30,-80
160.0650,-70,-50,-30,-80
488.4625,-70,-50,-30,-80
488.7125,-70,-50,-30,-80
488.8750,-70,-50,-30,-80
489.3375,-70,-50,-30,-80
490.5875,-70,-50,-30,-80
491.4625,-70,-50,-30,-80
491.7125,-70,-50,-30,-80
491.8750,-70,-50,-30,-80
492.3375,-70,-50,-30,-80
493.5875,-70,-50,-30,-80
770.0313,-70,-50,-30,-85
770.3063,-70,-50,-30,-85
771.2813,-70,-50,-30,-85
771.4313,-70,-50,-30,-85
771.5813,-70,-50,-30,-85
771.8813,-70,-50,-30,-85
772.0313,-70,-50,-30,-85
772.7063,-70,-50,-30,-85
773.4813,-70,-50,-30,-85
800.0313,-70,-50,-30,-85
800.3063,-70,-50,-30,-85
801.2813,-70,-50,-30,-85
801.4313,-70,-50,-30,-85
801.5813,-70,-50,-30,-85
801.8813,-70,-50,-30,-85
802.0313,-70,-50,-30,-85
802.7063,-70,-50,-30,-85
803.4813,-70,-50,-30,-85
